<?xml version="1.0" encoding="UTF-8" standalone="no"?>
<!-- Created with Inkscape (http://www.inkscape.org/) -->

<svg
   xmlns:osb="http://www.openswatchbook.org/uri/2009/osb"
   xmlns:dc="http://purl.org/dc/elements/1.1/"
   xmlns:cc="http://creativecommons.org/ns#"
   xmlns:rdf="http://www.w3.org/1999/02/22-rdf-syntax-ns#"
   xmlns:svg="http://www.w3.org/2000/svg"
   xmlns="http://www.w3.org/2000/svg"
   xmlns:xlink="http://www.w3.org/1999/xlink"
   xmlns:sodipodi="http://sodipodi.sourceforge.net/DTD/sodipodi-0.dtd"
   xmlns:inkscape="http://www.inkscape.org/namespaces/inkscape"
   width="2327.8765"
   height="2112.0002"
   viewBox="0 0 615.91732 558.80008"
   version="1.1"
   id="svg8"
   inkscape:version="0.92.2 2405546, 2018-03-11"
   sodipodi:docname="example_blocks.svg"
   inkscape:export-filename="/home/leoncito/Pictures/Godot_InitialArtwork_blocks.svg.png"
   inkscape:export-xdpi="185.60001"
   inkscape:export-ydpi="185.60001">
  <defs
     id="defs2">
    <linearGradient
       inkscape:collect="always"
       id="linearGradient8411">
      <stop
         style="stop-color:#a3e7fd;stop-opacity:1"
         offset="0"
         id="stop8407" />
      <stop
         style="stop-color:#c2f3ff;stop-opacity:0"
         offset="1"
         id="stop8409" />
    </linearGradient>
    <linearGradient
       id="linearGradient7522"
       osb:paint="solid">
      <stop
         style="stop-color:#000000;stop-opacity:1;"
         offset="0"
         id="stop7520" />
    </linearGradient>
    <linearGradient
       id="linearGradient7514"
       osb:paint="solid">
      <stop
         style="stop-color:#008000;stop-opacity:1;"
         offset="0"
         id="stop7512" />
    </linearGradient>
    <linearGradient
       inkscape:collect="always"
       xlink:href="#linearGradient8411"
       id="linearGradient8413"
       x1="439.94092"
       y1="387.35001"
       x2="-43.994091"
       y2="-146.05002"
       gradientUnits="userSpaceOnUse" />
  </defs>
  <sodipodi:namedview
     id="base"
     pagecolor="#ffffff"
     bordercolor="#666666"
     borderopacity="1.0"
     inkscape:pageopacity="0.0"
     inkscape:pageshadow="2"
     inkscape:zoom="0.25"
     inkscape:cx="1587.6473"
     inkscape:cy="891.29918"
     inkscape:document-units="mm"
     inkscape:current-layer="layer1"
     showgrid="true"
     units="px"
     inkscape:snap-bbox="true"
     inkscape:bbox-nodes="true"
     inkscape:snap-grids="true"
     inkscape:window-width="1920"
     inkscape:window-height="1046"
     inkscape:window-x="0"
     inkscape:window-y="34"
     inkscape:window-maximized="0"
     fit-margin-top="0"
     fit-margin-left="0"
     fit-margin-right="0"
     fit-margin-bottom="0">
    <inkscape:grid
       type="axonomgrid"
       id="grid4524"
       units="px"
       empspacing="16"
       spacingy="3.1750001"
       color="#000051"
       opacity="0.09411765"
       empcolor="#3f3fff"
       empopacity="0.65490196"
       originx="-571.92318"
       originy="279.40005" />
  </sodipodi:namedview>
  <metadata
     id="metadata5">
    <rdf:RDF>
      <cc:Work
         rdf:about="">
        <dc:format>image/svg+xml</dc:format>
        <dc:type
           rdf:resource="http://purl.org/dc/dcmitype/StillImage" />
        <dc:title></dc:title>
      </cc:Work>
    </rdf:RDF>
  </metadata>
  <g
     inkscape:groupmode="layer"
     id="layer2"
     inkscape:label="Sky"
     style="display:none;opacity:1"
     sodipodi:insensitive="true"
     transform="translate(-571.92318,-6.349953)">
    <rect
       style="opacity:1;fill:url(#linearGradient8413);fill-opacity:1;fill-rule:nonzero;stroke:none;stroke-width:0.1;stroke-linecap:round;stroke-linejoin:miter;stroke-miterlimit:4;stroke-dasharray:none;stroke-opacity:1;paint-order:stroke fill markers"
       id="rect8405"
       width="571.92316"
       height="381"
       x="-43.994091"
       y="-44.450012" />
  </g>
  <g
     inkscape:label="Level"
     inkscape:groupmode="layer"
     id="layer1"
     transform="translate(-571.92318,-17.599936)"
     style="display:inline">
    <g
       transform="translate(2.2641322e-6,-101.6)"
       id="g7973-2">
      <path
         sodipodi:nodetypes="ccccccc"
         inkscape:connector-curvature="0"
         id="path4745-0-2-5-2-0"
         d="m 703.90547,347.79998 v -50.79999 l 43.99409,-25.40001 43.99409,25.40001 v 50.79999 l -43.99409,25.4 z"
         style="fill:#b69f76;fill-opacity:1;stroke:none;stroke-width:0.53737122px;stroke-linecap:butt;stroke-linejoin:miter;stroke-opacity:1" />
      <path
         style="fill:#ffe9c5;fill-opacity:1;stroke:none;stroke-width:0.26458332px;stroke-linecap:butt;stroke-linejoin:miter;stroke-opacity:1"
         d="m 703.90546,303.34998 43.9941,25.40001 43.99409,-25.40001 v -6.34999 l -43.99409,-25.40001 -43.9941,25.40001 z"
         id="path4747-9-8-8-9-5"
         inkscape:connector-curvature="0" />
    </g>
    <g
       id="g5180-1"
       transform="translate(263.96456,50.800001)">
      <path
         sodipodi:nodetypes="ccccccc"
         inkscape:connector-curvature="0"
         id="path4745-0-2-6-7"
         d="m 307.95864,169.99998 v -50.8 l 43.99409,-25.4 43.99409,25.4 v 50.8 l -43.99409,25.4 z"
         style="fill:#b69f76;fill-opacity:1;stroke:none;stroke-width:0.53737122px;stroke-linecap:butt;stroke-linejoin:miter;stroke-opacity:1" />
      <path
         style="fill:#ffe9c5;fill-opacity:1;stroke:none;stroke-width:0.26458332px;stroke-linecap:butt;stroke-linejoin:miter;stroke-opacity:1"
         d="m 307.95863,125.54998 43.9941,25.4 43.99409,-25.4 v -6.35 l -43.99409,-25.4 -43.9941,25.4 z"
         id="path4747-9-8-9-7"
         inkscape:connector-curvature="0" />
      <path
         style="fill:#89837a;fill-opacity:1;stroke:none;stroke-width:0.26458332px;stroke-linecap:butt;stroke-linejoin:miter;stroke-opacity:1"
         d="m 324.45642,135.07498 v 12.7 l 10.99852,6.35 v -12.7 z"
         id="path4751-6-7-7-1"
         inkscape:connector-curvature="0" />
      <path
         inkscape:connector-curvature="0"
         id="path4753-0-3-4-1"
         d="m 310.70827,127.13748 v 12.7 l 10.99852,6.35 v -12.7 z"
         style="fill:#89837a;fill-opacity:1;stroke:none;stroke-width:0.26458332px;stroke-linecap:butt;stroke-linejoin:miter;stroke-opacity:1" />
      <path
         style="fill:#89837a;fill-opacity:1;stroke:none;stroke-width:0.26458332px;stroke-linecap:butt;stroke-linejoin:miter;stroke-opacity:1"
         d="m 338.20458,143.01248 v 12.7 l 10.99852,6.35 v -12.7 z"
         id="path4755-6-6-5-5"
         inkscape:connector-curvature="0" />
      <path
         inkscape:connector-curvature="0"
         id="path5156-9"
         d="m 318.95716,112.84998 5.49926,-3.175 5.49926,3.175 10.99852,-6.35 -5.49926,-3.175 5.49926,-3.175 10.99854,6.35 -21.99706,12.7 z"
         style="fill:#f0d4a6;fill-opacity:1;stroke:none;stroke-width:0.26458332px;stroke-linecap:butt;stroke-linejoin:miter;stroke-opacity:1" />
      <path
         inkscape:connector-curvature="0"
         id="path5156-2-7"
         d="m 384.9483,125.54998 -5.49926,3.175 -5.49926,-3.175 -10.99852,6.35 5.49926,3.175 -5.49926,3.175 -10.99854,-6.35 21.99706,-12.7 z"
         style="fill:#f0d4a6;fill-opacity:1;stroke:none;stroke-width:0.26458332px;stroke-linecap:butt;stroke-linejoin:miter;stroke-opacity:1" />
    </g>
    <g
       id="g5645"
       transform="translate(175.97638,50.800003)">
      <g
         id="g5605">
        <path
           style="fill:#89837a;fill-opacity:1;stroke:none;stroke-width:0.26458332px;stroke-linecap:butt;stroke-linejoin:miter;stroke-opacity:1"
           d="m 439.94091,93.799977 v -6.35 l 5.49925,-3.175003 v -6.35 l 5.49926,-3.175 v -6.35 l 5.49929,-3.175 v -6.35 l 5.49926,-3.174999 v -6.35 l 5.49926,-3.175 v -6.35 l 5.49925,-3.175001 v -6.35 l 5.49926,-3.175 v -6.35 l 5.49926,-3.175 v 50.8 z"
           id="path5375"
           inkscape:connector-curvature="0" />
        <g
           id="g5488">
          <path
             inkscape:connector-curvature="0"
             id="path5446"
             d="m 439.94091,93.799977 -43.9941,-25.400003 v -6.35 l 43.9941,25.400003 z"
             style="fill:#f0d4a6;fill-opacity:1;stroke:none;stroke-width:0.26458332px;stroke-linecap:butt;stroke-linejoin:miter;stroke-opacity:1" />
          <path
             inkscape:connector-curvature="0"
             id="path5457"
             d="m 395.94681,62.049974 5.49929,-3.175 43.99406,25.4 -5.49925,3.175003 z"
             style="fill:#ffe9c5;fill-opacity:1;stroke:none;stroke-width:0.26458332px;stroke-linecap:butt;stroke-linejoin:miter;stroke-opacity:1" />
        </g>
        <g
           transform="translate(5.4992705,-9.5250009)"
           id="g5488-7">
          <path
             inkscape:connector-curvature="0"
             id="path5446-6"
             d="m 439.94091,93.799977 -43.9941,-25.400003 v -6.35 l 43.9941,25.400003 z"
             style="fill:#f0d4a6;fill-opacity:1;stroke:none;stroke-width:0.26458332px;stroke-linecap:butt;stroke-linejoin:miter;stroke-opacity:1" />
          <path
             inkscape:connector-curvature="0"
             id="path5457-7"
             d="m 395.94681,62.049974 5.49929,-3.175 43.99406,25.4 -5.49925,3.175003 z"
             style="fill:#ffe9c5;fill-opacity:1;stroke:none;stroke-width:0.26458332px;stroke-linecap:butt;stroke-linejoin:miter;stroke-opacity:1" />
        </g>
        <g
           transform="translate(10.998532,-19.050001)"
           id="g5488-3">
          <path
             inkscape:connector-curvature="0"
             id="path5446-65"
             d="m 439.94091,93.799977 -43.9941,-25.400003 v -6.35 l 43.9941,25.400003 z"
             style="fill:#f0d4a6;fill-opacity:1;stroke:none;stroke-width:0.26458332px;stroke-linecap:butt;stroke-linejoin:miter;stroke-opacity:1" />
          <path
             inkscape:connector-curvature="0"
             id="path5457-6"
             d="m 395.94681,62.049974 5.49929,-3.175 43.99406,25.4 -5.49925,3.175003 z"
             style="fill:#ffe9c5;fill-opacity:1;stroke:none;stroke-width:0.26458332px;stroke-linecap:butt;stroke-linejoin:miter;stroke-opacity:1" />
        </g>
        <g
           transform="translate(16.497793,-28.575002)"
           id="g5488-39">
          <path
             inkscape:connector-curvature="0"
             id="path5446-4"
             d="m 439.94091,93.799977 -43.9941,-25.400003 v -6.35 l 43.9941,25.400003 z"
             style="fill:#f0d4a6;fill-opacity:1;stroke:none;stroke-width:0.26458332px;stroke-linecap:butt;stroke-linejoin:miter;stroke-opacity:1" />
          <path
             inkscape:connector-curvature="0"
             id="path5457-8"
             d="m 395.94681,62.049974 5.49929,-3.175 43.99406,25.4 -5.49925,3.175003 z"
             style="fill:#ffe9c5;fill-opacity:1;stroke:none;stroke-width:0.26458332px;stroke-linecap:butt;stroke-linejoin:miter;stroke-opacity:1" />
        </g>
        <g
           transform="translate(21.997055,-38.100002)"
           id="g5488-1">
          <path
             inkscape:connector-curvature="0"
             id="path5446-2"
             d="m 439.94091,93.799977 -43.9941,-25.400003 v -6.35 l 43.9941,25.400003 z"
             style="fill:#f0d4a6;fill-opacity:1;stroke:none;stroke-width:0.26458332px;stroke-linecap:butt;stroke-linejoin:miter;stroke-opacity:1" />
          <path
             inkscape:connector-curvature="0"
             id="path5457-9"
             d="m 395.94681,62.049974 5.49929,-3.175 43.99406,25.4 -5.49925,3.175003 z"
             style="fill:#ffe9c5;fill-opacity:1;stroke:none;stroke-width:0.26458332px;stroke-linecap:butt;stroke-linejoin:miter;stroke-opacity:1" />
        </g>
        <g
           transform="translate(27.496316,-47.625002)"
           id="g5488-390">
          <path
             inkscape:connector-curvature="0"
             id="path5446-8"
             d="m 439.94091,93.799977 -43.9941,-25.400003 v -6.35 l 43.9941,25.400003 z"
             style="fill:#f0d4a6;fill-opacity:1;stroke:none;stroke-width:0.26458332px;stroke-linecap:butt;stroke-linejoin:miter;stroke-opacity:1" />
          <path
             inkscape:connector-curvature="0"
             id="path5457-85"
             d="m 395.94681,62.049974 5.49929,-3.175 43.99406,25.4 -5.49925,3.175003 z"
             style="fill:#ffe9c5;fill-opacity:1;stroke:none;stroke-width:0.26458332px;stroke-linecap:butt;stroke-linejoin:miter;stroke-opacity:1" />
        </g>
        <g
           transform="translate(32.995578,-57.150002)"
           id="g5488-0">
          <path
             inkscape:connector-curvature="0"
             id="path5446-9"
             d="m 439.94091,93.799977 -43.9941,-25.400003 v -6.35 l 43.9941,25.400003 z"
             style="fill:#f0d4a6;fill-opacity:1;stroke:none;stroke-width:0.26458332px;stroke-linecap:butt;stroke-linejoin:miter;stroke-opacity:1" />
          <path
             inkscape:connector-curvature="0"
             id="path5457-63"
             d="m 395.94681,62.049974 5.49929,-3.175 43.99406,25.4 -5.49925,3.175003 z"
             style="fill:#ffe9c5;fill-opacity:1;stroke:none;stroke-width:0.26458332px;stroke-linecap:butt;stroke-linejoin:miter;stroke-opacity:1" />
        </g>
        <g
           transform="translate(38.494839,-66.675003)"
           id="g5488-8">
          <path
             inkscape:connector-curvature="0"
             id="path5446-5"
             d="m 439.94091,93.799977 -43.9941,-25.400003 v -6.35 l 43.9941,25.400003 z"
             style="fill:#f0d4a6;fill-opacity:1;stroke:none;stroke-width:0.26458332px;stroke-linecap:butt;stroke-linejoin:miter;stroke-opacity:1" />
          <path
             inkscape:connector-curvature="0"
             id="path5457-61"
             d="m 395.94681,62.049974 5.49929,-3.175 43.99406,25.4 -5.49925,3.175003 z"
             style="fill:#ffe9c5;fill-opacity:1;stroke:none;stroke-width:0.26458332px;stroke-linecap:butt;stroke-linejoin:miter;stroke-opacity:1" />
        </g>
      </g>
      <path
         inkscape:connector-curvature="0"
         id="path5607"
         d="m 450.93942,87.449977 v -6.350003 l 5.49929,-3.175 v -6.35 l 5.49926,-3.175 v -6.35 l 5.49926,-3.175 v -6.349999 l 5.49925,-3.175 v -6.35 l 5.49926,-3.175 v -6.35 l 5.49926,-3.175001 v 38.1 z"
         style="fill:#b69f76;fill-opacity:1;stroke:none;stroke-width:0.26458332px;stroke-linecap:butt;stroke-linejoin:miter;stroke-opacity:1" />
    </g>
    <g
       id="g7701-61-9"
       transform="translate(-131.98228,25.400001)">
      <path
         sodipodi:nodetypes="ccccccc"
         inkscape:connector-curvature="0"
         id="path4745-0-2-06-0-3-1"
         d="m 703.90548,296.99998 v -50.8 l 43.99409,-25.4 43.99409,25.4 v 50.8 l -43.99409,25.4 z"
         style="fill:#b69f76;fill-opacity:1;stroke:none;stroke-width:0.53737122px;stroke-linecap:butt;stroke-linejoin:miter;stroke-opacity:1" />
      <path
         style="fill:#ffe9c5;fill-opacity:1;stroke:none;stroke-width:0.26458332px;stroke-linecap:butt;stroke-linejoin:miter;stroke-opacity:1"
         d="m 703.90547,252.54998 43.9941,25.4 43.99409,-25.4 v -6.35 l -43.99409,-25.4 -43.9941,25.4 z"
         id="path4747-9-8-15-8-2-4"
         inkscape:connector-curvature="0" />
      <g
         id="g7562-5-1-9"
         transform="translate(-87.353833,-48.422322)">
        <ellipse
           style="opacity:1;fill:#b4b4b4;fill-opacity:1;fill-rule:nonzero;stroke:none;stroke-width:0.16491087;stroke-linecap:round;stroke-linejoin:miter;stroke-miterlimit:4;stroke-dasharray:none;stroke-opacity:1;paint-order:stroke fill markers"
           id="path7528-8-5-1"
           cx="835.88776"
           cy="295.12521"
           rx="27.496311"
           ry="14.000228" />
        <ellipse
           style="opacity:1;fill:#b3d9ff;fill-opacity:1;fill-rule:nonzero;stroke:none;stroke-width:0.16209997;stroke-linecap:round;stroke-linejoin:miter;stroke-miterlimit:4;stroke-dasharray:none;stroke-opacity:1;paint-order:stroke fill markers"
           id="path7528-2-6-9-0"
           cx="835.88776"
           cy="296.17297"
           rx="27.496313"
           ry="13.527031" />
      </g>
    </g>
    <g
       id="g4757-7-2-7"
       transform="translate(439.94092,152.4)">
      <path
         sodipodi:nodetypes="ccccccc"
         inkscape:connector-curvature="0"
         id="path4745-0-2-5"
         d="m 131.98228,271.59998 v -50.8 l 43.99409,-25.4 43.99409,25.4 v 50.8 l -43.99409,25.4 z"
         style="fill:#b69f76;fill-opacity:1;stroke:none;stroke-width:0.53737122px;stroke-linecap:butt;stroke-linejoin:miter;stroke-opacity:1" />
      <path
         style="fill:#ffe9c5;fill-opacity:1;stroke:none;stroke-width:0.26458332px;stroke-linecap:butt;stroke-linejoin:miter;stroke-opacity:1"
         d="m 131.98227,227.14998 43.9941,25.4 43.99409,-25.4 v -6.35 l -43.99409,-25.4 -43.9941,25.4 z"
         id="path4747-9-8-8"
         inkscape:connector-curvature="0" />
      <path
         style="fill:#aaaaaa;fill-opacity:1;stroke:none;stroke-width:0.26458332px;stroke-linecap:butt;stroke-linejoin:miter;stroke-opacity:1"
         d="m 153.97932,233.49998 21.99705,12.7 21.99704,-12.7 -21.99704,9.525 z"
         id="path4749-3-9-7"
         inkscape:connector-curvature="0" />
      <path
         style="fill:#89837a;fill-opacity:1;stroke:none;stroke-width:0.26458332px;stroke-linecap:butt;stroke-linejoin:miter;stroke-opacity:1"
         d="m 148.48006,236.67498 v 12.7 l 10.99852,6.35 v -12.7 z"
         id="path4751-6-7-0"
         inkscape:connector-curvature="0" />
      <path
         inkscape:connector-curvature="0"
         id="path4753-0-3-4"
         d="m 134.73191,228.73748 v 12.7 l 10.99852,6.35 v -12.7 z"
         style="fill:#89837a;fill-opacity:1;stroke:none;stroke-width:0.26458332px;stroke-linecap:butt;stroke-linejoin:miter;stroke-opacity:1" />
      <path
         style="fill:#89837a;fill-opacity:1;stroke:none;stroke-width:0.26458332px;stroke-linecap:butt;stroke-linejoin:miter;stroke-opacity:1"
         d="m 162.22822,244.61248 v 12.7 l 10.99852,6.35 v -12.7 z"
         id="path4755-6-6-80"
         inkscape:connector-curvature="0" />
    </g>
    <g
       id="g7973">
      <path
         sodipodi:nodetypes="ccccccc"
         inkscape:connector-curvature="0"
         id="path4745-0-2-5-2"
         d="m 703.90547,347.79998 v -50.79999 l 43.99409,-25.40001 43.99409,25.40001 v 50.79999 l -43.99409,25.4 z"
         style="fill:#b69f76;fill-opacity:1;stroke:none;stroke-width:0.53737122px;stroke-linecap:butt;stroke-linejoin:miter;stroke-opacity:1" />
      <path
         style="fill:#ffe9c5;fill-opacity:1;stroke:none;stroke-width:0.26458332px;stroke-linecap:butt;stroke-linejoin:miter;stroke-opacity:1"
         d="m 703.90546,303.34998 43.9941,25.40001 43.99409,-25.40001 v -6.34999 l -43.99409,-25.40001 -43.9941,25.40001 z"
         id="path4747-9-8-8-9"
         inkscape:connector-curvature="0" />
      <path
         style="fill:#aaaaaa;fill-opacity:1;stroke:none;stroke-width:0.26458332px;stroke-linecap:butt;stroke-linejoin:miter;stroke-opacity:1"
         d="m 725.90251,309.69998 21.99705,12.70001 21.99704,-12.70001 -21.99704,9.525 z"
         id="path4749-3-9-7-6"
         inkscape:connector-curvature="0" />
    </g>
    <g
       transform="translate(2.2642468e-6,101.6)"
       id="g7973-2-2">
      <path
         sodipodi:nodetypes="ccccccc"
         inkscape:connector-curvature="0"
         id="path4745-0-2-5-2-0-9"
         d="m 703.90547,347.79998 v -50.79999 l 43.99409,-25.40001 43.99409,25.40001 v 50.79999 l -43.99409,25.4 z"
         style="fill:#b69f76;fill-opacity:1;stroke:none;stroke-width:0.53737122px;stroke-linecap:butt;stroke-linejoin:miter;stroke-opacity:1" />
    </g>
    <g
       id="g8298">
      <g
         id="g7973-1"
         transform="translate(-131.98228,177.80001)">
        <path
           style="fill:#b69f76;fill-opacity:1;stroke:none;stroke-width:0.53737122px;stroke-linecap:butt;stroke-linejoin:miter;stroke-opacity:1"
           d="m 703.90547,347.79998 v -50.79999 l 43.99409,-25.40001 43.99409,25.40001 v 50.79999 l -43.99409,25.4 z"
           id="path4745-0-2-5-2-9"
           inkscape:connector-curvature="0"
           sodipodi:nodetypes="ccccccc" />
        <path
           inkscape:connector-curvature="0"
           id="path4747-9-8-8-9-6"
           d="m 703.90546,303.34998 43.9941,25.40001 43.99409,-25.40001 v -6.34999 l -43.99409,-25.40001 -43.9941,25.40001 z"
           style="fill:#ffe9c5;fill-opacity:1;stroke:none;stroke-width:0.26458332px;stroke-linecap:butt;stroke-linejoin:miter;stroke-opacity:1" />
      </g>
      <path
         sodipodi:nodetypes="ccccccccccccc"
         inkscape:connector-curvature="0"
         id="path8116"
         d="m 591.1706,463.68748 16.49778,9.525 -13.74814,7.93751 2.74963,1.5875 24.74668,-14.2875 -2.74963,-1.5875 -2.74963,1.58749 -16.4978,-9.525 -2.74963,1.5875 16.4978,9.52501 -2.74963,1.5875 -16.4978,-9.52501 z"
         style="fill:#aaaaaa;fill-opacity:1;stroke:none;stroke-width:0.26458332px;stroke-linecap:butt;stroke-linejoin:miter;stroke-opacity:1" />
      <path
         sodipodi:nodetypes="ccccccccccccc"
         inkscape:connector-curvature="0"
         id="path8116-5"
         d="m 643.41359,484.32499 -16.49778,-9.525 10.99852,-6.35 -2.74963,-1.5875 -21.99704,12.7 2.74963,1.5875 2.74961,-1.5875 16.49779,9.525 2.74964,-1.5875 -16.49778,-9.525 2.74963,-1.5875 16.49778,9.525 z"
         style="fill:#aaaaaa;fill-opacity:1;stroke:none;stroke-width:0.26458332px;stroke-linecap:butt;stroke-linejoin:miter;stroke-opacity:1" />
    </g>
    <g
       id="g12732">
      <g
         id="g7973-2-20"
         transform="translate(2.2641322e-6,203.20001)"
         style="display:inline">
        <path
           style="fill:#b69f76;fill-opacity:1;stroke:none;stroke-width:0.53737122px;stroke-linecap:butt;stroke-linejoin:miter;stroke-opacity:1"
           d="m 703.90547,347.79998 v -50.79999 l 43.99409,-25.40001 43.99409,25.40001 v 50.79999 l -43.99409,25.4 z"
           id="path4745-0-2-5-2-0-7"
           inkscape:connector-curvature="0"
           sodipodi:nodetypes="ccccccc" />
        <path
           inkscape:connector-curvature="0"
           id="path4747-9-8-8-9-5-3"
           d="m 703.90546,303.34998 43.9941,25.40001 43.99409,-25.40001 v -6.34999 l -43.99409,-25.40001 -43.9941,25.40001 z"
           style="fill:#ffe9c5;fill-opacity:1;stroke:none;stroke-width:0.26458332px;stroke-linecap:butt;stroke-linejoin:miter;stroke-opacity:1" />
      </g>
      <path
         inkscape:connector-curvature="0"
         id="path12710"
         d="m 780.89513,506.54998 -5.49926,-3.175 -2.74963,-1.5875 10.99852,-6.35 -5.49926,-3.175 -16.4978,9.525 13.74817,7.9375 z"
         style="fill:#9ab76f;fill-opacity:1;stroke:none;stroke-width:0.26458332px;stroke-linecap:butt;stroke-linejoin:miter;stroke-opacity:1" />
      <path
         inkscape:connector-curvature="0"
         id="path12710-1"
         d="m 714.904,493.84999 5.49926,3.175 2.74963,1.5875 -10.99852,6.35 5.49926,3.175 16.4978,-9.525 -13.74817,-7.9375 z"
         style="display:inline;fill:#9ab76f;fill-opacity:1;stroke:none;stroke-width:0.26458332px;stroke-linecap:butt;stroke-linejoin:miter;stroke-opacity:1" />
    </g>
    <g
       id="g12804"
       transform="translate(263.96455,101.59999)">
      <g
         id="g7973-2-20-4"
         transform="translate(131.98228,-228.6)"
         style="display:inline">
        <path
           style="fill:#b69f76;fill-opacity:1;stroke:none;stroke-width:0.53737122px;stroke-linecap:butt;stroke-linejoin:miter;stroke-opacity:1"
           d="m 703.90547,347.79998 v -50.79999 l 43.99409,-25.40001 43.99409,25.40001 v 50.79999 l -43.99409,25.4 z"
           id="path4745-0-2-5-2-0-7-06"
           inkscape:connector-curvature="0"
           sodipodi:nodetypes="ccccccc" />
        <path
           inkscape:connector-curvature="0"
           id="path4747-9-8-8-9-5-3-4"
           d="m 703.90546,303.34998 43.9941,25.40001 43.99409,-25.40001 v -6.34999 l -43.99409,-25.40001 -43.9941,25.40001 z"
           style="fill:#ffe9c5;fill-opacity:1;stroke:none;stroke-width:0.26458332px;stroke-linecap:butt;stroke-linejoin:miter;stroke-opacity:1" />
      </g>
      <path
         inkscape:connector-curvature="0"
         id="path12798"
         d="m 857.88478,55.699975 21.99706,12.699999 21.99703,-12.699999 -21.99703,-12.7 z"
         style="fill:#9ab76f;fill-opacity:1;stroke:none;stroke-width:0.26458332px;stroke-linecap:butt;stroke-linejoin:miter;stroke-opacity:1" />
    </g>
    <g
       id="g12900"
       transform="translate(-2.0421973e-6,-101.6)">
      <path
         sodipodi:nodetypes="ccccccc"
         inkscape:connector-curvature="0"
         id="path4745-0-2-5-2-0-7-06-6"
         d="m 835.88775,220.79997 v -50.79999 l 43.99409,-25.40001 43.99409,25.40001 v 50.79999 l -43.99409,25.4 z"
         style="fill:#b69f76;fill-opacity:1;stroke:none;stroke-width:0.53737122px;stroke-linecap:butt;stroke-linejoin:miter;stroke-opacity:1" />
      <path
         style="fill:#9ab76f;fill-opacity:1;stroke:none;stroke-width:0.26458332px;stroke-linecap:butt;stroke-linejoin:miter;stroke-opacity:1"
         d="m 835.88774,176.34997 43.9941,25.40001 43.99409,-25.40001 v -6.34999 l -43.99409,-25.40001 -43.9941,25.40001 z"
         id="path4747-9-8-8-9-5-3-4-4"
         inkscape:connector-curvature="0" />
      <path
         sodipodi:nodetypes="ccccc"
         inkscape:connector-curvature="0"
         id="path12798-62"
         d="m 857.88479,182.69998 c 8.24888,4.76253 13.74815,7.93749 21.99705,12.69998 8.24888,-4.76251 13.74818,-7.93743 21.99704,-12.69998 l -21.99704,-12.7 z"
         style="fill:#89837a;fill-opacity:1;stroke:none;stroke-width:0.26458332px;stroke-linecap:butt;stroke-linejoin:miter;stroke-opacity:1" />
      <path
         sodipodi:nodetypes="ccccc"
         inkscape:connector-curvature="0"
         id="path12798-62-8"
         d="m 860.63442,184.28748 19.24742,11.1125 19.24741,-11.1125 -19.24741,-11.1125 z"
         style="display:inline;fill:#c8c0b4;fill-opacity:1;stroke:none;stroke-width:0.26458332px;stroke-linecap:butt;stroke-linejoin:miter;stroke-opacity:1" />
    </g>
    <g
       id="g3605"
       transform="translate(-4.08426e-6,-101.6)">
      <path
         sodipodi:nodetypes="ccccccc"
         inkscape:connector-curvature="0"
         id="path4745-0-2-5-2-0-7-06-6-62"
         d="m 835.88775,322.39997 v -50.79999 l 43.99409,-25.40001 43.99409,25.40001 v 50.79999 l -43.99409,25.4 z"
         style="fill:#b69f76;fill-opacity:1;stroke:none;stroke-width:0.53737122px;stroke-linecap:butt;stroke-linejoin:miter;stroke-opacity:1" />
      <path
         style="fill:#9ab76f;fill-opacity:1;stroke:none;stroke-width:0.26458332px;stroke-linecap:butt;stroke-linejoin:miter;stroke-opacity:1"
         d="m 835.88774,277.94997 43.9941,25.40001 43.99409,-25.40001 v -6.34999 l -43.99409,-25.40001 -43.9941,25.40001 z"
         id="path4747-9-8-8-9-5-3-4-4-9"
         inkscape:connector-curvature="0" />
      <path
         sodipodi:nodetypes="ccccc"
         inkscape:connector-curvature="0"
         id="path12798-62-1"
         d="m 882.63147,270.01248 c 8.24888,4.76253 13.74814,7.93751 21.99704,12.7 8.24888,-4.76251 10.99855,-6.34993 19.24741,-11.11248 l -21.99704,-12.7 z"
         style="fill:#89837a;fill-opacity:1;stroke:none;stroke-width:0.26458332px;stroke-linecap:butt;stroke-linejoin:miter;stroke-opacity:1" />
      <path
         sodipodi:nodetypes="ccccc"
         inkscape:connector-curvature="0"
         id="path12798-62-8-2"
         d="m 885.38109,271.59998 19.24742,11.1125 19.24741,-11.1125 -19.24741,-11.1125 z"
         style="display:inline;fill:#c8c0b4;fill-opacity:1;stroke:none;stroke-width:0.26458332px;stroke-linecap:butt;stroke-linejoin:miter;stroke-opacity:1" />
    </g>
    <g
       id="g3895"
       transform="translate(-2.0421973e-6,-101.6)">
      <path
         sodipodi:nodetypes="ccccccc"
         inkscape:connector-curvature="0"
         id="path4745-0-2-5-2-0-7-06-6-62-3"
         d="m 835.88775,423.99998 v -50.79999 l 43.99409,-25.40001 43.99409,25.40001 v 50.79999 l -43.99409,25.4 z"
         style="fill:#b69f76;fill-opacity:1;stroke:none;stroke-width:0.53737122px;stroke-linecap:butt;stroke-linejoin:miter;stroke-opacity:1" />
      <path
         style="fill:#9ab76f;fill-opacity:1;stroke:none;stroke-width:0.26458332px;stroke-linecap:butt;stroke-linejoin:miter;stroke-opacity:1"
         d="m 835.88774,379.54998 43.9941,25.40001 43.99409,-25.40001 v -6.34999 l -43.99409,-25.40001 -43.9941,25.40001 z"
         id="path4747-9-8-8-9-5-3-4-4-9-7"
         inkscape:connector-curvature="0" />
      <path
         sodipodi:nodetypes="ccccc"
         inkscape:connector-curvature="0"
         id="path12798-62-1-5"
         d="m 860.63443,358.91247 c 8.24888,4.76253 10.99851,6.35003 19.24741,11.11252 8.24888,-4.76251 10.99855,-6.34996 19.24741,-11.11251 l -19.24741,-11.11249 z"
         style="fill:#89837a;fill-opacity:1;stroke:none;stroke-width:0.26458332px;stroke-linecap:butt;stroke-linejoin:miter;stroke-opacity:1" />
      <path
         sodipodi:nodetypes="ccccc"
         inkscape:connector-curvature="0"
         id="path12798-62-8-2-9"
         d="m 860.63442,358.91248 19.24742,11.11251 19.24741,-11.11251 -19.24741,-11.1125 z"
         style="display:inline;fill:#c8c0b4;fill-opacity:1;stroke:none;stroke-width:0.26458332px;stroke-linecap:butt;stroke-linejoin:miter;stroke-opacity:1" />
    </g>
    <g
       transform="translate(131.98227,-76.200003)"
       style="display:inline"
       id="g12900-6">
      <path
         sodipodi:nodetypes="ccccccc"
         inkscape:connector-curvature="0"
         id="path4745-0-2-5-2-0-7-06-6-5"
         d="m 835.88775,220.79997 v -50.79999 l 43.99409,-25.40001 43.99409,25.40001 v 50.79999 l -43.99409,25.4 z"
         style="fill:#b69f76;fill-opacity:1;stroke:none;stroke-width:0.53737122px;stroke-linecap:butt;stroke-linejoin:miter;stroke-opacity:1" />
      <path
         style="fill:#9ab76f;fill-opacity:1;stroke:none;stroke-width:0.26458332px;stroke-linecap:butt;stroke-linejoin:miter;stroke-opacity:1"
         d="m 835.88774,176.34997 43.9941,25.40001 43.99409,-25.40001 v -6.34999 l -43.99409,-25.40001 -43.9941,25.40001 z"
         id="path4747-9-8-8-9-5-3-4-4-6"
         inkscape:connector-curvature="0" />
      <path
         sodipodi:nodetypes="ccccc"
         inkscape:connector-curvature="0"
         id="path12798-62-9"
         d="m 857.88479,182.69998 c 8.24888,4.76253 13.74815,7.93749 21.99705,12.69998 8.24888,-4.76251 13.74818,-7.93743 21.99704,-12.69998 l -21.99704,-12.7 z"
         style="fill:#89837a;fill-opacity:1;stroke:none;stroke-width:0.26458332px;stroke-linecap:butt;stroke-linejoin:miter;stroke-opacity:1" />
      <path
         sodipodi:nodetypes="ccccc"
         inkscape:connector-curvature="0"
         id="path12798-62-8-3"
         d="m 860.63442,184.28748 19.24742,11.1125 19.24741,-11.1125 -19.24741,-11.1125 z"
         style="display:inline;fill:#b3d9ff;fill-opacity:1;stroke:none;stroke-width:0.26458332px;stroke-linecap:butt;stroke-linejoin:miter;stroke-opacity:1" />
    </g>
    <g
       style="display:inline"
       id="g3605-7"
       transform="translate(131.98227,-76.200003)">
      <path
         sodipodi:nodetypes="ccccccc"
         inkscape:connector-curvature="0"
         id="path4745-0-2-5-2-0-7-06-6-62-4"
         d="m 835.88775,322.39997 v -50.79999 l 43.99409,-25.40001 43.99409,25.40001 v 50.79999 l -43.99409,25.4 z"
         style="fill:#b69f76;fill-opacity:1;stroke:none;stroke-width:0.53737122px;stroke-linecap:butt;stroke-linejoin:miter;stroke-opacity:1" />
      <path
         style="fill:#9ab76f;fill-opacity:1;stroke:none;stroke-width:0.26458332px;stroke-linecap:butt;stroke-linejoin:miter;stroke-opacity:1"
         d="m 835.88774,277.94997 43.9941,25.40001 43.99409,-25.40001 v -6.34999 l -43.99409,-25.40001 -43.9941,25.40001 z"
         id="path4747-9-8-8-9-5-3-4-4-9-5"
         inkscape:connector-curvature="0" />
      <path
         sodipodi:nodetypes="ccccc"
         inkscape:connector-curvature="0"
         id="path12798-62-1-2"
         d="m 882.63147,270.01248 c 8.24888,4.76253 13.74814,7.93751 21.99704,12.7 8.24888,-4.76251 10.99855,-6.34993 19.24741,-11.11248 l -21.99704,-12.7 z"
         style="fill:#89837a;fill-opacity:1;stroke:none;stroke-width:0.26458332px;stroke-linecap:butt;stroke-linejoin:miter;stroke-opacity:1" />
      <path
         sodipodi:nodetypes="ccccc"
         inkscape:connector-curvature="0"
         id="path12798-62-8-2-5"
         d="m 885.38109,271.59998 19.24742,11.1125 19.24741,-11.1125 -19.24741,-11.1125 z"
         style="display:inline;fill:#b3d9ff;fill-opacity:1;stroke:none;stroke-width:0.26458332px;stroke-linecap:butt;stroke-linejoin:miter;stroke-opacity:1" />
    </g>
    <g
       transform="translate(131.98227,-76.200003)"
       style="display:inline"
       id="g3895-4">
      <path
         sodipodi:nodetypes="ccccccc"
         inkscape:connector-curvature="0"
         id="path4745-0-2-5-2-0-7-06-6-62-3-7"
         d="m 835.88775,423.99998 v -50.79999 l 43.99409,-25.40001 43.99409,25.40001 v 50.79999 l -43.99409,25.4 z"
         style="fill:#b69f76;fill-opacity:1;stroke:none;stroke-width:0.53737122px;stroke-linecap:butt;stroke-linejoin:miter;stroke-opacity:1" />
      <path
         style="fill:#9ab76f;fill-opacity:1;stroke:none;stroke-width:0.26458332px;stroke-linecap:butt;stroke-linejoin:miter;stroke-opacity:1"
         d="m 835.88774,379.54998 43.9941,25.40001 43.99409,-25.40001 v -6.34999 l -43.99409,-25.40001 -43.9941,25.40001 z"
         id="path4747-9-8-8-9-5-3-4-4-9-7-4"
         inkscape:connector-curvature="0" />
      <path
         sodipodi:nodetypes="ccccc"
         inkscape:connector-curvature="0"
         id="path12798-62-1-5-4"
         d="m 860.63443,358.91247 c 8.24888,4.76253 10.99851,6.35003 19.24741,11.11252 8.24888,-4.76251 10.99855,-6.34996 19.24741,-11.11251 l -19.24741,-11.11249 z"
         style="fill:#89837a;fill-opacity:1;stroke:none;stroke-width:0.26458332px;stroke-linecap:butt;stroke-linejoin:miter;stroke-opacity:1" />
      <path
         sodipodi:nodetypes="ccccc"
         inkscape:connector-curvature="0"
         id="path12798-62-8-2-9-3"
         d="m 860.63442,358.91248 19.24742,11.11251 19.24741,-11.11251 -19.24741,-11.1125 z"
         style="display:inline;fill:#b3d9ff;fill-opacity:1;stroke:none;stroke-width:0.26458332px;stroke-linecap:butt;stroke-linejoin:miter;stroke-opacity:1" />
    </g>
    <g
       id="g5570">
      <g
         transform="translate(131.98228,127.00002)"
         id="g3605-7-6"
         style="display:inline">
        <path
           style="fill:#b69f76;fill-opacity:1;stroke:none;stroke-width:0.53737122px;stroke-linecap:butt;stroke-linejoin:miter;stroke-opacity:1"
           d="m 835.88775,322.39997 v -50.79999 l 43.99409,-25.40001 43.99409,25.40001 v 50.79999 l -43.99409,25.4 z"
           id="path4745-0-2-5-2-0-7-06-6-62-4-2"
           inkscape:connector-curvature="0"
           sodipodi:nodetypes="ccccccc" />
        <path
           inkscape:connector-curvature="0"
           id="path4747-9-8-8-9-5-3-4-4-9-5-9"
           d="m 835.88774,277.94997 43.9941,25.40001 43.99409,-25.40001 v -6.34999 l -43.99409,-25.40001 -43.9941,25.40001 z"
           style="fill:#9ab76f;fill-opacity:1;stroke:none;stroke-width:0.26458332px;stroke-linecap:butt;stroke-linejoin:miter;stroke-opacity:1" />
        <path
           style="fill:#89837a;fill-opacity:1;stroke:none;stroke-width:0.26458332px;stroke-linecap:butt;stroke-linejoin:miter;stroke-opacity:1"
           d="m 857.88479,284.29997 c 8.24888,4.76253 13.74814,7.93751 21.99704,12.7 8.24888,-4.76251 35.74523,-20.63742 43.99409,-25.39997 l -21.99704,-12.7 z"
           id="path12798-62-1-2-1"
           inkscape:connector-curvature="0"
           sodipodi:nodetypes="ccccc" />
        <path
           style="display:inline;fill:#b3d9ff;fill-opacity:1;stroke:none;stroke-width:0.26458332px;stroke-linecap:butt;stroke-linejoin:miter;stroke-opacity:1"
           d="m 860.63442,285.88747 19.24741,11.1125 43.99409,-25.39999 -19.24741,-11.1125 z"
           id="path12798-62-8-2-5-2"
           inkscape:connector-curvature="0"
           sodipodi:nodetypes="ccccc" />
      </g>
    </g>
    <g
       style="display:inline"
       id="g5180-1-2"
       transform="translate(791.89366,-50.800003)">
      <path
         sodipodi:nodetypes="ccccccc"
         inkscape:connector-curvature="0"
         id="path4745-0-2-6-7-6"
         d="m 307.95864,169.99998 v -50.8 l 43.99409,-25.4 43.99409,25.4 v 50.8 l -43.99409,25.4 z"
         style="fill:#b69f76;fill-opacity:1;stroke:none;stroke-width:0.53737122px;stroke-linecap:butt;stroke-linejoin:miter;stroke-opacity:1" />
      <path
         style="fill:#ffe9c5;fill-opacity:1;stroke:none;stroke-width:0.26458332px;stroke-linecap:butt;stroke-linejoin:miter;stroke-opacity:1"
         d="m 307.95863,125.54998 43.9941,25.4 43.99409,-25.4 v -6.35 l -43.99409,-25.4 -43.9941,25.4 z"
         id="path4747-9-8-9-7-1"
         inkscape:connector-curvature="0" />
      <path
         inkscape:connector-curvature="0"
         id="path5156-9-2"
         d="m 318.95716,112.84998 5.49926,-3.175 5.49926,3.175 10.99852,-6.35 -5.49926,-3.175 5.49926,-3.175 10.99854,6.35 -21.99706,12.7 z"
         style="fill:#f0d4a6;fill-opacity:1;stroke:none;stroke-width:0.26458332px;stroke-linecap:butt;stroke-linejoin:miter;stroke-opacity:1" />
      <path
         inkscape:connector-curvature="0"
         id="path5156-2-7-0"
         d="m 384.9483,125.54998 -5.49926,3.175 -5.49926,-3.175 -10.99852,6.35 5.49926,3.175 -5.49926,3.175 -10.99854,-6.35 21.99706,-12.7 z"
         style="fill:#f0d4a6;fill-opacity:1;stroke:none;stroke-width:0.26458332px;stroke-linecap:butt;stroke-linejoin:miter;stroke-opacity:1" />
    </g>
    <g
       transform="translate(-131.98228,-25.400003)"
       style="display:inline"
       id="g5570-3">
      <g
         transform="translate(131.98228,127.00002)"
         id="g3605-7-6-7"
         style="display:inline">
        <path
           style="fill:#b69f76;fill-opacity:1;stroke:none;stroke-width:0.53737122px;stroke-linecap:butt;stroke-linejoin:miter;stroke-opacity:1"
           d="m 835.88775,322.39997 v -50.79999 l 43.99409,-25.40001 43.99409,25.40001 v 50.79999 l -43.99409,25.4 z"
           id="path4745-0-2-5-2-0-7-06-6-62-4-2-4"
           inkscape:connector-curvature="0"
           sodipodi:nodetypes="ccccccc" />
        <path
           inkscape:connector-curvature="0"
           id="path4747-9-8-8-9-5-3-4-4-9-5-9-5"
           d="m 835.88774,277.94997 43.9941,25.40001 43.99409,-25.40001 v -6.34999 l -43.99409,-25.40001 -43.9941,25.40001 z"
           style="fill:#9ab76f;fill-opacity:1;stroke:none;stroke-width:0.26458332px;stroke-linecap:butt;stroke-linejoin:miter;stroke-opacity:1" />
        <path
           style="fill:#89837a;fill-opacity:1;stroke:none;stroke-width:0.26458332px;stroke-linecap:butt;stroke-linejoin:miter;stroke-opacity:1"
           d="m 857.88479,284.29997 c 8.24888,4.76253 13.74814,7.93751 21.99704,12.7 8.24888,-4.76251 35.74523,-20.63742 43.99409,-25.39997 l -21.99704,-12.7 z"
           id="path12798-62-1-2-1-2"
           inkscape:connector-curvature="0"
           sodipodi:nodetypes="ccccc" />
        <path
           style="display:inline;fill:#c8c0b4;fill-opacity:1;stroke:none;stroke-width:0.26458332px;stroke-linecap:butt;stroke-linejoin:miter;stroke-opacity:1"
           d="m 860.63442,285.88747 19.24741,11.1125 43.99409,-25.39999 -19.24741,-11.1125 z"
           id="path12798-62-8-2-5-2-5"
           inkscape:connector-curvature="0"
           sodipodi:nodetypes="ccccc" />
      </g>
    </g>
    <g
       transform="translate(-6.3485268e-6,101.59999)"
       style="display:inline"
       id="g5570-4">
      <g
         transform="translate(131.98228,127.00002)"
         id="g3605-7-6-74"
         style="display:inline">
        <path
           style="fill:#b69f76;fill-opacity:1;stroke:none;stroke-width:0.53737122px;stroke-linecap:butt;stroke-linejoin:miter;stroke-opacity:1"
           d="m 835.88775,322.39997 v -50.79999 l 43.99409,-25.40001 43.99409,25.40001 v 50.79999 l -43.99409,25.4 z"
           id="path4745-0-2-5-2-0-7-06-6-62-4-2-43"
           inkscape:connector-curvature="0"
           sodipodi:nodetypes="ccccccc" />
        <path
           inkscape:connector-curvature="0"
           id="path4747-9-8-8-9-5-3-4-4-9-5-9-0"
           d="m 835.88774,277.94997 43.9941,25.40001 43.99409,-25.40001 v -6.34999 l -43.99409,-25.40001 -43.9941,25.40001 z"
           style="fill:#9ab76f;fill-opacity:1;stroke:none;stroke-width:0.26458332px;stroke-linecap:butt;stroke-linejoin:miter;stroke-opacity:1" />
        <path
           style="display:inline;fill:#b3d9ff;fill-opacity:1;stroke:none;stroke-width:0.26458332px;stroke-linecap:butt;stroke-linejoin:miter;stroke-opacity:1"
           d="m 835.88775,271.59998 19.24741,11.1125 43.99409,-25.39999 -19.24741,-11.1125 z"
           id="path12798-62-8-2-5-2-8"
           inkscape:connector-curvature="0"
           sodipodi:nodetypes="ccccc" />
      </g>
    </g>
    <g
       transform="translate(-131.98228,76.19999)"
       style="display:inline"
       id="g5570-4-6">
      <g
         transform="translate(131.98228,127.00002)"
         id="g3605-7-6-74-8"
         style="display:inline">
        <path
           style="fill:#b69f76;fill-opacity:1;stroke:none;stroke-width:0.53737122px;stroke-linecap:butt;stroke-linejoin:miter;stroke-opacity:1"
           d="m 835.88775,322.39997 v -50.79999 l 43.99409,-25.40001 43.99409,25.40001 v 50.79999 l -43.99409,25.4 z"
           id="path4745-0-2-5-2-0-7-06-6-62-4-2-43-8"
           inkscape:connector-curvature="0"
           sodipodi:nodetypes="ccccccc" />
        <path
           inkscape:connector-curvature="0"
           id="path4747-9-8-8-9-5-3-4-4-9-5-9-0-4"
           d="m 835.88774,277.94997 43.9941,25.40001 43.99409,-25.40001 v -6.34999 l -43.99409,-25.40001 -43.9941,25.40001 z"
           style="fill:#9ab76f;fill-opacity:1;stroke:none;stroke-width:0.26458332px;stroke-linecap:butt;stroke-linejoin:miter;stroke-opacity:1" />
        <path
           style="display:inline;fill:#c8c0b4;fill-opacity:1;stroke:none;stroke-width:0.26458332px;stroke-linecap:butt;stroke-linejoin:miter;stroke-opacity:1"
           d="m 835.88775,271.59998 19.24741,11.1125 43.99409,-25.39999 -19.24741,-11.1125 z"
           id="path12798-62-8-2-5-2-8-3"
           inkscape:connector-curvature="0"
           sodipodi:nodetypes="ccccc" />
      </g>
    </g>
    <g
       transform="translate(263.96455,101.60001)"
       style="display:inline"
       id="g12900-6-4">
      <path
         sodipodi:nodetypes="ccccccc"
         inkscape:connector-curvature="0"
         id="path4745-0-2-5-2-0-7-06-6-5-9"
         d="m 835.88775,220.79997 v -50.79999 l 43.99409,-25.40001 43.99409,25.40001 v 50.79999 l -43.99409,25.4 z"
         style="fill:#b69f76;fill-opacity:1;stroke:none;stroke-width:0.53737122px;stroke-linecap:butt;stroke-linejoin:miter;stroke-opacity:1" />
      <path
         style="fill:#9ab76f;fill-opacity:1;stroke:none;stroke-width:0.26458332px;stroke-linecap:butt;stroke-linejoin:miter;stroke-opacity:1"
         d="m 835.88774,176.34997 43.9941,25.40001 43.99409,-25.40001 v -6.34999 l -43.99409,-25.40001 -43.9941,25.40001 z"
         id="path4747-9-8-8-9-5-3-4-4-6-2"
         inkscape:connector-curvature="0" />
    </g>
    <g
       id="g6229">
      <g
         id="g6137">
        <path
           style="fill:#5b4c31;fill-opacity:0.99215686;stroke:none;stroke-width:0.26458332px;stroke-linecap:butt;stroke-linejoin:miter;stroke-opacity:1"
           d="m 1105.3516,528.77499 43.9941,-25.4 -5.4993,-53.97501 -43.9941,25.4 z"
           id="path6130"
           inkscape:connector-curvature="0"
           sodipodi:nodetypes="ccccc" />
        <g
           transform="translate(395.94683,177.80001)"
           style="display:inline"
           id="g7973-7">
          <path
             sodipodi:nodetypes="cccccccc"
             inkscape:connector-curvature="0"
             id="path4745-0-2-5-2-1"
             d="m 703.90547,347.79998 v -50.79999 l 43.99409,-25.40001 43.99409,25.40001 v 12.69999 l -43.99409,25.4 c -36.21995,-26.42251 -36.89771,-4.65043 -38.49483,15.875 z"
             style="fill:#b69f76;fill-opacity:1;stroke:none;stroke-width:0.53737122px;stroke-linecap:butt;stroke-linejoin:miter;stroke-opacity:1" />
          <path
             style="fill:#ffe9c5;fill-opacity:1;stroke:none;stroke-width:0.26458332px;stroke-linecap:butt;stroke-linejoin:miter;stroke-opacity:1"
             d="m 703.90546,303.34998 43.9941,25.40001 43.99409,-25.40001 v -6.34999 l -43.99409,-25.40001 -43.9941,25.40001 z"
             id="path4747-9-8-8-9-7"
             inkscape:connector-curvature="0" />
        </g>
      </g>
      <path
         inkscape:connector-curvature="0"
         id="path6193"
         d="m 1143.8464,506.54998 v -6.35 l -43.9941,-25.4 v 6.35 z"
         style="fill:#89837a;fill-opacity:1;stroke:none;stroke-width:0.26458332px;stroke-linecap:butt;stroke-linejoin:miter;stroke-opacity:1" />
      <path
         inkscape:connector-curvature="0"
         id="path6195"
         d="m 1143.8464,500.19998 43.9941,-25.4 v 6.35 l -43.9941,25.4 z"
         style="fill:#89837a;fill-opacity:1;stroke:none;stroke-width:0.26458332px;stroke-linecap:butt;stroke-linejoin:miter;stroke-opacity:1" />
    </g>
    <g
       id="g6220">
      <g
         id="g7973-6"
         style="display:inline"
         transform="translate(395.94683,76.200006)">
        <path
           style="fill:#b69f76;fill-opacity:1;stroke:none;stroke-width:0.53737122px;stroke-linecap:butt;stroke-linejoin:miter;stroke-opacity:1"
           d="m 703.90547,309.69998 v -12.69999 l 43.99409,-25.40001 43.99409,25.40001 v 50.79999 l -43.99409,25.4 -5.49926,-3.175 c 0,-50.79457 -33.06926,-53.87044 -38.49483,-60.325 z"
           id="path4745-0-2-5-2-6"
           inkscape:connector-curvature="0"
           sodipodi:nodetypes="cccccccc" />
        <path
           inkscape:connector-curvature="0"
           id="path4747-9-8-8-9-4"
           d="m 703.90546,303.34998 43.9941,25.40001 43.99409,-25.40001 v -6.34999 l -43.99409,-25.40001 -43.9941,25.40001 z"
           style="fill:#ffe9c5;fill-opacity:1;stroke:none;stroke-width:0.26458332px;stroke-linecap:butt;stroke-linejoin:miter;stroke-opacity:1" />
      </g>
      <path
         inkscape:connector-curvature="0"
         id="path6193-7"
         d="m 1143.8464,404.94999 v -6.35 l -43.9941,-25.4 v 6.35 z"
         style="display:inline;fill:#89837a;fill-opacity:1;stroke:none;stroke-width:0.26458332px;stroke-linecap:butt;stroke-linejoin:miter;stroke-opacity:1" />
      <path
         inkscape:connector-curvature="0"
         id="path6195-2"
         d="m 1143.8464,398.59999 43.9941,-25.4 v 6.35 l -43.9941,25.4 z"
         style="display:inline;fill:#89837a;fill-opacity:1;stroke:none;stroke-width:0.26458332px;stroke-linecap:butt;stroke-linejoin:miter;stroke-opacity:1" />
    </g>
    <g
       transform="translate(-395.94684,-330.20005)"
       style="display:inline"
       id="g6220-3">
      <g
         id="g7973-6-3"
         style="display:inline"
         transform="translate(395.94683,76.200006)">
        <path
           style="fill:#b69f76;fill-opacity:1;stroke:none;stroke-width:0.53737122px;stroke-linecap:butt;stroke-linejoin:miter;stroke-opacity:1"
           d="m 703.90547,309.69998 v -12.69999 l 43.99409,-25.40001 43.99409,25.40001 10e-6,12.69999 -43.99409,25.4 z"
           id="path4745-0-2-5-2-6-3"
           inkscape:connector-curvature="0"
           sodipodi:nodetypes="ccccccc" />
        <path
           inkscape:connector-curvature="0"
           id="path4747-9-8-8-9-4-8"
           d="m 703.90546,303.34998 43.9941,25.40001 43.99409,-25.40001 v -6.34999 l -43.99409,-25.40001 -43.9941,25.40001 z"
           style="fill:#ffe9c5;fill-opacity:1;stroke:none;stroke-width:0.26458332px;stroke-linecap:butt;stroke-linejoin:miter;stroke-opacity:1" />
      </g>
      <path
         inkscape:connector-curvature="0"
         id="path6193-7-6"
         d="m 1143.8464,404.94999 v -6.35 l -43.9941,-25.4 v 6.35 z"
         style="display:inline;fill:#89837a;fill-opacity:1;stroke:none;stroke-width:0.26458332px;stroke-linecap:butt;stroke-linejoin:miter;stroke-opacity:1" />
      <path
         inkscape:connector-curvature="0"
         id="path6195-2-0"
         d="m 1143.8464,398.59999 43.9941,-25.4 v 6.35 l -43.9941,25.4 z"
         style="display:inline;fill:#89837a;fill-opacity:1;stroke:none;stroke-width:0.26458332px;stroke-linecap:butt;stroke-linejoin:miter;stroke-opacity:1" />
    </g>
  </g>
</svg>
