[
	{
		"blocks" : [
			{"id":0, "position":[0,0,0], "rotation":0},
			{"id":1, "position":[1,1,0], "rotation":0},
			{"id":0, "position":[2,1,0], "rotation":0},
			{"id":0, "position":[2,1,-1], "rotation":0}
		],
		"entry_points" : [
			{"position":[0,0,0], "rotation":0},
			{"position":[2,1,-1], "rotation":3},
			{"position":[1,1,0], "rotation":2}
		]
	}
	,
	{
		"blocks" : [
			{"id":0, "position":[0,0,0], "rotation":0},
			{"id":0, "position":[1,0,0], "rotation":0},
			{"id":0, "position":[0,0,1], "rotation":0},
			{"id":0, "position":[1,0,1], "rotation":0},
			{"id":0, "position":[0,0,2], "rotation":0},
			{"id":0, "position":[1,0,2], "rotation":0}
		],
		"entry_points" : [
			{"position":[0,0,0], "rotation":0},
			{"position":[1,0,2], "rotation":2}
		]
	}
]
